{
  "response":{"numFound":18943,"start":0,"maxScore":1.0,"numFoundExact":true,"docs":[]
  },
  "facet_counts":{
    "facet_queries":{},
    "facet_fields":{
      "journalId_i":[
        "107760",11004,
        "28533",4648,
        "97924",665,
        "102624",499,
        "25293",490,
        "39823",363,
        "22968",330,
        "2991",262,
        "23060",201,
        "41568",160,
        "103789",113,
        "144759",96,
        "26287",45,
        "127270",22,
        "2924",12,
        "2874",10,
        "145085",8,
        "137025",3,
        "106862",2,
        "110664",2,
        "150637",2,
        "124183",1,
        "145931",1,
        "160497",1,
        "161543",1,
        "318460",1,
        "414649",1]},
    "facet_ranges":{},
    "facet_intervals":{},
    "facet_heatmaps":{}}}
