{
   "items" : [
      {
         "type" : "journal",
         "id" : 14330,
         "publisher_policy" : [
            {
               "permitted_oa" : [
                  {
                     "additional_oa_fee_phrases" : [
                        {
                           "language" : "en",
                           "value" : "no",
                           "phrase" : "No"
                        }
                     ],
                     "additional_oa_fee" : "no",
                     "conditions" : [
                        "Published source must be acknowledged",
                        "Must link to publisher version"
                     ],
                     "article_version_phrases" : [
                        {
                           "phrase" : "Submitted",
                           "value" : "submitted",
                           "language" : "en"
                        },
                        {
                           "language" : "en",
                           "value" : "accepted",
                           "phrase" : "Accepted"
                        },
                        {
                           "language" : "en",
                           "phrase" : "Published",
                           "value" : "published"
                        }
                     ],
                     "public_notes" : [
                        "Publisher's version/PDF may be used, but is discouraged",
                        "Publisher preferred link to publisher version instead, rather than deposit of Publisher's version/PDF"
                     ],
                     "article_version" : [
                        "submitted",
                        "accepted",
                        "published"
                     ],
                     "location" : {
                        "location" : [
                           "authors_homepage",
                           "institutional_website"
                        ],
                        "location_phrases" : [
                           {
                              "language" : "en",
                              "value" : "authors_homepage",
                              "phrase" : "Author's Homepage"
                           },
                           {
                              "value" : "institutional_website",
                              "phrase" : "Institutional Website",
                              "language" : "en"
                           }
                        ]
                     }
                  }
               ],
               "uri" : "http://v2.sherpa.ac.uk/id/publisher_policy/645",
               "open_access_prohibited_phrases" : [
                  {
                     "phrase" : "No",
                     "value" : "no",
                     "language" : "en"
                  }
               ],
               "publication_count" : 1,
               "internal_moniker" : "Default Policy",
               "urls" : [
                  {
                     "url" : "http://cybergeo.revues.org/5021",
                     "description" : "Copyright Information"
                  }
               ],
               "open_access_prohibited" : "no",
               "id" : 645
            }
         ],
         "issns" : [
            {
               "issn" : "1278-3366",
               "type" : "print",
               "type_phrases" : [
                  {
                     "value" : "print",
                     "phrase" : "Print",
                     "language" : "en"
                  }
               ]
            }
         ],
         "listed_in_doaj" : "yes",
         "publishers" : [
            {
               "publisher" : {
                  "uri" : "http://v2.sherpa.ac.uk/id/publisher/645",
                  "publication_count" : 1,
                  "url" : "http://cybergeo.revues.org/",
                  "country" : "fr",
                  "name" : [
                     {
                        "preferred_phrases" : [
                           {
                              "phrase" : "Name",
                              "value" : "name",
                              "language" : "en"
                           }
                        ],
                        "language_phrases" : [
                           {
                              "value" : "en",
                              "phrase" : "English",
                              "language" : "en"
                           }
                        ],
                        "language" : "en",
                        "preferred" : "name",
                        "name" : "Cybergeo : European Journal of Geography"
                     }
                  ],
                  "country_phrases" : [
                     {
                        "phrase" : "France",
                        "value" : "fr",
                        "language" : "en"
                     }
                  ],
                  "id" : 645
               },
               "relationship_type" : "independent_journal",
               "relationship_type_phrases" : [
                  {
                     "value" : "independent_journal",
                     "phrase" : "Independant Journal",
                     "language" : "en"
                  }
               ]
            }
         ],
         "title" : [
            {
               "language_phrases" : [
                  {
                     "phrase" : "English",
                     "value" : "en",
                     "language" : "en"
                  }
               ],
               "title" : "Cybergeo : European Journal of Geography",
               "language" : "en",
               "acronym" : "Cybergeo"
            }
         ],
         "type_phrases" : [
            {
               "phrase" : "Journal",
               "value" : "journal",
               "language" : "en"
            }
         ],
         "url" : "http://cybergeo.revues.org/",
         "listed_in_doaj_phrases" : [
            {
               "phrase" : "Yes",
               "value" : "yes",
               "language" : "en"
            }
         ],
         "system_metadata" : {
            "date_created" : "2010-09-07 11:03:12",
            "uri" : "http://v2.sherpa.ac.uk/id/publication/14330",
            "publicly_visible_phrases" : [
               {
                  "value" : "yes",
                  "phrase" : "Yes",
                  "language" : "en"
               }
            ],
            "publicly_visible" : "yes",
            "id" : 14330,
            "date_modified" : "2020-01-29 15:27:57"
         }
      }
   ]
}

